2,0.1,0.21
2.5,0.21,13.34
2.5,0.21,13.39
2.5,0.21,13.4
2.5,0.21,13.48
2.5,0.21,13.53
2.5,0.21,13.59
2.5,0.21,13.65
2.5,0.21,13.78
2.5,0.21,13.8
2.5,0.21,13.81
2.5,0.21,13.85
2.5,0.21,13.88
2.5,0.21,13.88
2.5,0.21,13.94
2.5,0.21,14.05
2.5,0.21,14.08
3.5,13.48,24.7
3.5,13.48,24.14
3.5,13.48,24.14
3.5,13.59,24.21
3.5,13.59,24.24
3.5,13.65,24.24
3.5,13.53,24.25
3.5,13.8,24.28
3.5,13.59,24.28
3.5,13.81,24.3
3.5,13.59,24.34
3.5,13.88,24.39
3.5,13.85,24.4
3.5,13.59,24.42
3.5,13.88,24.44
3.5,13.65,24.47
3.5,13.94,24.51
3.5,14.08,24.51
3.5,14.05,24.61
3.5,13.78,24.77
3.5,24.07,34.56
3.5,24.14,34.69
3.5,24.14,34.7
3.5,24.24,34.77
3.5,24.21,34.8
3.5,24.25,34.85
3.5,24.24,34.85
3.5,24.27,34.9
3.5,24.28,34.92
3.5,24.34,34.94
3.5,24.3,34.96
3.5,24.39,34.98
3.5,24.4,35
3.5,24.42,35.06
3.5,24.44,35.12
3.5,24.47,35.13
3.5,24.51,35.17
3.5,24.51,35.18
3.5,24.61,35.24
3.5,24.77,35.45
3.5,34.56,45.24
3.5,34.69,45.36
3.5,34.7,45.38
3.5,34.77,45.47
3.5,34.8,45.49
3.5,34.85,45.55
3.5,34.85,45.57
3.5,34.92,45.6
3.5,34.9,45.62
3.5,34.96,45.65
3.5,34.98,45.68
3.5,34.94,45.68
3.5,35,45.75
3.5,35.06,45.81
3.5,35.12,45.83
3.5,35.13,45.84
3.5,35.17,45.95
3.5,35.18,45.95
3.5,35.24,46.01
3.5,35.45,46.27
3.5,45.24,56.05
3.5,45.36,56.17
4.5,56.17,61.13
5.5,61.13,66.47
6.5,66.47,77
6.5,66.47,77.12
6.5,66.47,77.16
6.5,66.47,77.17
6.5,66.47,77.19
6.5,66.47,77.2
6.5,66.47,77.2
6.5,66.47,77.23
6.5,66.47,77.25
6.5,66.47,77.25
6.5,66.47,77.27
6.5,66.47,77.3
6.5,66.47,77.36
6.5,66.47,77.38
6.5,66.47,77.38
6.5,66.47,77.45
7.5,77.45,85.71
8.5,85.71,95.13
9.5,95.31,102.22
10.5,102.22,103.05
