Hessian,HV1,HV2,HV3,HV4,HVAdd
Determinant,0,0,0,29331527108124725000000000000000000000000000000000000000000000000000000000,-Inf
Determinant (Inverse),0,0,0,-967025511523103760000000000000000000000000000000000000000000000000000000000000000000000000000000000000000000000000000000000000000000000000000000000000000000000000000000000000000,-Inf
Largest Eigenvalues,283.6988; 279.2847; 278.5843; 276.055; 271.6821; 271.0498,633289.28; 612911.89; 608806.6421; 530815.8019; 339434.1451; 173400.9142,7639.0471; -7636.4202; 20.7805; -18.5353; 5.5182; -4.6113,84498.1774; 72547.2203; 66173.323; 53888.1074; 49169.3668; 43888.4987,635081.0509; 614933.6807; 610533.8772; 538201.2914; 339527.3343; 176159.8928
