3,0.1,0.21
4,0.21,13.34
4,0.21,13.39
4,0.21,13.4
4,0.21,13.48
4,0.21,13.53
4,0.21,13.59
4,0.21,13.65
4,0.21,13.78
4,0.21,13.8
4,0.21,13.81
4,0.21,13.85
4,0.21,13.88
4,0.21,13.88
4,0.21,13.94
4,0.21,14.05
4,0.21,14.08
5,13.48,24.7
5,13.48,24.14
5,13.48,24.14
5,13.59,24.21
5,13.59,24.24
5,13.65,24.24
5,13.53,24.25
5,13.8,24.28
5,13.59,24.28
5,13.81,24.3
5,13.59,24.34
5,13.88,24.39
5,13.85,24.4
5,13.59,24.42
5,13.88,24.44
5,13.65,24.47
5,13.94,24.51
5,14.08,24.51
5,14.05,24.61
5,13.78,24.77
5,24.07,34.56
5,24.14,34.69
5,24.14,34.7
5,24.24,34.77
5,24.21,34.8
5,24.25,34.85
5,24.24,34.85
5,24.27,34.9
5,24.28,34.92
5,24.34,34.94
5,24.3,34.96
5,24.39,34.98
5,24.4,35
5,24.42,35.06
5,24.44,35.12
5,24.47,35.13
5,24.51,35.17
5,24.51,35.18
5,24.61,35.24
5,24.77,35.45
5,34.56,45.24
5,34.69,45.36
5,34.7,45.38
5,34.77,45.47
5,34.8,45.49
5,34.85,45.55
5,34.85,45.57
5,34.92,45.6
5,34.9,45.62
5,34.96,45.65
5,34.98,45.68
5,34.94,45.68
5,35,45.75
5,35.06,45.81
5,35.12,45.83
5,35.13,45.84
5,35.17,45.95
5,35.18,45.95
5,35.24,46.01
5,35.45,46.27
5,45.24,56.05
5,45.36,56.17
6,56.17,61.13
7,61.13,66.47
8,66.47,77
8,66.47,77.12
8,66.47,77.16
8,66.47,77.17
8,66.47,77.19
8,66.47,77.2
8,66.47,77.2
8,66.47,77.23
8,66.47,77.25
8,66.47,77.25
8,66.47,77.27
8,66.47,77.3
8,66.47,77.36
8,66.47,77.38
8,66.47,77.38
8,66.47,77.45
9,77.45,85.71
10,85.71,95.13
11,95.31,102.22
12,102.22,103.05
