4.5,0.1,0.21
5.5,0.21,13.34
5.5,0.21,13.39
5.5,0.21,13.4
5.5,0.21,13.48
5.5,0.21,13.53
5.5,0.21,13.59
5.5,0.21,13.65
5.5,0.21,13.78
5.5,0.21,13.8
5.5,0.21,13.81
5.5,0.21,13.85
5.5,0.21,13.88
5.5,0.21,13.88
5.5,0.21,13.94
5.5,0.21,14.05
5.5,0.21,14.08
6.5,13.48,24.7
6.5,13.48,24.14
6.5,13.48,24.14
6.5,13.59,24.21
6.5,13.59,24.24
6.5,13.65,24.24
6.5,13.53,24.25
6.5,13.8,24.28
6.5,13.59,24.28
6.5,13.81,24.3
6.5,13.59,24.34
6.5,13.88,24.39
6.5,13.85,24.4
6.5,13.59,24.42
6.5,13.88,24.44
6.5,13.65,24.47
6.5,13.94,24.51
6.5,14.08,24.51
6.5,14.05,24.61
6.5,13.78,24.77
6.5,24.07,34.56
6.5,24.14,34.69
6.5,24.14,34.7
6.5,24.24,34.77
6.5,24.21,34.8
6.5,24.25,34.85
6.5,24.24,34.85
6.5,24.27,34.9
6.5,24.28,34.92
6.5,24.34,34.94
6.5,24.3,34.96
6.5,24.39,34.98
6.5,24.4,35
6.5,24.42,35.06
6.5,24.44,35.12
6.5,24.47,35.13
6.5,24.51,35.17
6.5,24.51,35.18
6.5,24.61,35.24
6.5,24.77,35.45
6.5,34.56,45.24
6.5,34.69,45.36
6.5,34.7,45.38
6.5,34.77,45.47
6.5,34.8,45.49
6.5,34.85,45.55
6.5,34.85,45.57
6.5,34.92,45.6
6.5,34.9,45.62
6.5,34.96,45.65
6.5,34.98,45.68
6.5,34.94,45.68
6.5,35,45.75
6.5,35.06,45.81
6.5,35.12,45.83
6.5,35.13,45.84
6.5,35.17,45.95
6.5,35.18,45.95
6.5,35.24,46.01
6.5,35.45,46.27
6.5,45.24,56.05
6.5,45.36,56.17
7.5,56.17,61.13
8.5,61.13,66.47
9.5,66.47,77
9.5,66.47,77.12
9.5,66.47,77.16
9.5,66.47,77.17
9.5,66.47,77.19
9.5,66.47,77.2
9.5,66.47,77.2
9.5,66.47,77.23
9.5,66.47,77.25
9.5,66.47,77.25
9.5,66.47,77.27
9.5,66.47,77.3
9.5,66.47,77.36
9.5,66.47,77.38
9.5,66.47,77.38
9.5,66.47,77.45
10.5,77.45,85.71
11.5,85.71,95.13
12.5,95.31,102.22
13.5,102.22,103.05
