2.5,0.1,0.21
3.5,0.21,13.34
3.5,0.21,13.39
3.5,0.21,13.4
3.5,0.21,13.48
3.5,0.21,13.53
3.5,0.21,13.59
3.5,0.21,13.65
3.5,0.21,13.78
3.5,0.21,13.8
3.5,0.21,13.81
3.5,0.21,13.85
3.5,0.21,13.88
3.5,0.21,13.88
3.5,0.21,13.94
3.5,0.21,14.05
3.5,0.21,14.08
4.5,13.48,24.7
4.5,13.48,24.14
4.5,13.48,24.14
4.5,13.59,24.21
4.5,13.59,24.24
4.5,13.65,24.24
4.5,13.53,24.25
4.5,13.8,24.28
4.5,13.59,24.28
4.5,13.81,24.3
4.5,13.59,24.34
4.5,13.88,24.39
4.5,13.85,24.4
4.5,13.59,24.42
4.5,13.88,24.44
4.5,13.65,24.47
4.5,13.94,24.51
4.5,14.08,24.51
4.5,14.05,24.61
4.5,13.78,24.77
4.5,24.07,34.56
4.5,24.14,34.69
4.5,24.14,34.7
4.5,24.24,34.77
4.5,24.21,34.8
4.5,24.25,34.85
4.5,24.24,34.85
4.5,24.27,34.9
4.5,24.28,34.92
4.5,24.34,34.94
4.5,24.3,34.96
4.5,24.39,34.98
4.5,24.4,35
4.5,24.42,35.06
4.5,24.44,35.12
4.5,24.47,35.13
4.5,24.51,35.17
4.5,24.51,35.18
4.5,24.61,35.24
4.5,24.77,35.45
4.5,34.56,45.24
4.5,34.69,45.36
4.5,34.7,45.38
4.5,34.77,45.47
4.5,34.8,45.49
4.5,34.85,45.55
4.5,34.85,45.57
4.5,34.92,45.6
4.5,34.9,45.62
4.5,34.96,45.65
4.5,34.98,45.68
4.5,34.94,45.68
4.5,35,45.75
4.5,35.06,45.81
4.5,35.12,45.83
4.5,35.13,45.84
4.5,35.17,45.95
4.5,35.18,45.95
4.5,35.24,46.01
4.5,35.45,46.27
4.5,45.24,56.05
4.5,45.36,56.17
5.5,56.17,61.13
6.5,61.13,66.47
7.5,66.47,77
7.5,66.47,77.12
7.5,66.47,77.16
7.5,66.47,77.17
7.5,66.47,77.19
7.5,66.47,77.2
7.5,66.47,77.2
7.5,66.47,77.23
7.5,66.47,77.25
7.5,66.47,77.25
7.5,66.47,77.27
7.5,66.47,77.3
7.5,66.47,77.36
7.5,66.47,77.38
7.5,66.47,77.38
7.5,66.47,77.45
8.5,77.45,85.71
9.5,85.71,95.13
10.5,95.31,102.22
11.5,102.22,103.05
